<?xml version="1.0" encoding="utf-8"?>
<!-- Generator: Adobe Illustrator 18.1.1, SVG Export Plug-In . SVG Version: 6.00 Build 0)  -->
<svg version="1.1" id="Layer_1" xmlns="http://www.w3.org/2000/svg" xmlns:xlink="http://www.w3.org/1999/xlink" x="0px" y="0px"
	 viewBox="0 0 208.7 208.7" enable-background="new 0 0 208.7 208.7" xml:space="preserve">
<path fill="#740AEF" d="M104.3,104.3h104.3c0-28.8-11.7-54.9-30.6-73.8L104.3,104.3L104.3,104.3z"/>
<path fill="#DC0CED" d="M178.1,30.6C159.2,11.7,133.2,0,104.3,0v104.3L178.1,30.6z"/>
<polygon fill="#F2084B" points="104.3,104.3 104.3,104.3 104.3,104.3 "/>
<polygon fill="#F2084B" points="104.3,104.3 104.3,104.3 104.3,104.3 "/>
<path fill="#F2084B" d="M104.3,0C75.5,0,49.4,11.7,30.6,30.6l73.8,73.8V0z"/>
<path fill="#1560CE" d="M104.3,104.3v104.3c28.8,0,54.9-11.7,73.8-30.6L104.3,104.3L104.3,104.3z"/>
<path fill="#EF770A" d="M104.3,104.3L30.6,30.6C11.7,49.4,0,75.5,0,104.3L104.3,104.3L104.3,104.3z"/>
<path fill="#234DAD" d="M104.3,104.3l73.8,73.8c18.9-18.9,30.6-45,30.6-73.8H104.3z"/>
<path fill="#4AC123" d="M104.3,104.3l-73.8,73.8c18.9,18.9,45,30.6,73.8,30.6V104.3L104.3,104.3z"/>
<path fill="#EDB70C" d="M0,104.3c0,28.8,11.7,54.9,30.6,73.8l73.8-73.8H0z"/>
</svg>
