{
    "cordova-plugin-notificare-push": {
        "source": {
            "type": "registry",
            "id": "cordova-plugin-notificare-push"
        },
        "is_top_level": true,
        "variables": {}
    },
    "cordova-plugin-splashscreen": {
        "source": {
            "type": "registry",
            "id": "cordova-plugin-splashscreen"
        },
        "is_top_level": true,
        "variables": {}
    },
    "phonegap-plugin-push": {
        "source": {
            "type": "git",
            "url": "https://github.com/phonegap/phonegap-plugin-push",
            "subdir": "."
        },
        "is_top_level": true,
        "variables": {}
    },
    "cordova-plugin-whitelist": {
        "source": {
            "type": "registry",
            "id": "cordova-plugin-whitelist@1"
        },
        "is_top_level": true,
        "variables": {}
    }
}